Linear Regression
…
In R, the shorthand notation to include all features is target_variable ~ .. Behind the scenes, R will automatically dummy encode all categorical features. Since there are a lot of features we can use tidy to summarize the results in a more predictable and useful format (e.g.a data frame with standard column names). The estimate column represents the estimated coefficients.

# create linear regression model object
lm_mod <- linear_reg() %>%  set_engine("lm")

# fit linear model with all features
lm_fit <- 
  lm_mod %>% 
  fit(Sale_Price ~ ., data = ames_train)

tidy(lm_fit)
## # A tibble: 300 x 5
##    term                                     estimate std.error statistic p.value
##    <chr>                                       <dbl>     <dbl>     <dbl>   <dbl>
##  1 (Intercept)                               -2.73e7 11016450.   -2.47    0.0134
##  2 MS_SubClassOne_Story_1945_and_Older        3.90e3     3575.    1.09    0.275 
##  3 MS_SubClassOne_Story_with_Finished_Att   -5.39e3    12164.   -0.443   0.658 
##  4 MS_SubClassOne_and_Half_Story_Unfinish   -4.41e2    13942.   -0.0316  0.975 
##  5 MS_SubClassOne_and_Half_Story_Finished    1.04e3     7250.    0.143   0.886 
##  6 MS_SubClassTwo_Story_1946_and_Newer       -6.67e3     5510.   -1.21    0.226 
##  7 MS_SubClassTwo_Story_1945_and_Older        1.57e3     6074.    0.259   0.795 
##  8 MS_SubClassTwo_and_Half_Story_All_Ages     3.41e3    10149.    0.336   0.737 
##  9 MS_SubClassSplit_or_Multilevel            -6.67e3    11673.   -0.571   0.568 
## 10 MS_SubClassSplit_Foyer                     1.49e3     7512.    0.199   0.843 
## #  with 290 more rows
…
