Logistic Regression
…
lr_fit1 %>% predict(churn_train, type = "prob")
## # A tibble: 1,028 x 2
##    .pred_No .pred_Yes
##       <dbl>     <dbl>
##  1    0.784    0.216 
##  2    0.778    0.222 
##  3    0.779    0.221 
##  4    0.834    0.166 
##  5    0.772    0.228 
##  6    0.813    0.187 
##  7    0.784    0.216 
##  8    0.906    0.0937
##  9    0.954    0.0463
## 10    0.807    0.193 
## #  with 1,018 more rows
…
