Feature & Target Engineering
…
Missing values can be a result of many different reasons; however, these reasons are usually lumped into two categories: 

* informative missingess

* missingness at random

]

.pull-right[

```r
AmesHousing::ames_raw %>% 
  filter(is.na(`Garage Type`)) %>% 
  select(`Garage Type`, `Garage Cars`, `Garage Area`)
## # A tibble: 157 x 3
##    `Garage Type` `Garage Cars` `Garage Area`
##    <chr>                 <int>         <int>
##  1 <NA>                      0             0
##  2 <NA>                      0             0
##  3 <NA>                      0             0
##  4 <NA>                      0             0
##  5 <NA>                      0             0
##  6 <NA>                      0             0
##  7 <NA>                      0             0
##  8 <NA>                      0             0
##  9 <NA>                      0             0
## 10 <NA>                      0             0
## # … with 147 more rows
```
…
* Label encoding:
   - pure numeric conversion of the levels of a categorical variable
   - most common: ordinal encoding
]

.pull-right[

.center.bold[Quality variables with natural ordering]

```r
ames_train %>% select(matches("Qual|QC|Qu"))
## # A tibble: 2,199 x 9
##    Overall_Qual Exter_Qual Bsmt_Qual Heating_QC Low_Qual_Fin_SF Kitchen_Qual
##    <fct>        <fct>      <fct>     <fct>                <int> <fct>       
##  1 Above_Avera… Typical    Typical   Fair                     0 Typical     
##  2 Average      Typical    Typical   Typical                  0 Typical     
##  3 Above_Avera… Typical    Typical   Typical                  0 Good        
##  4 Average      Typical    Good      Good                     0 Typical     
##  5 Above_Avera… Typical    Typical   Excellent                0 Good        
##  6 Very_Good    Good       Good      Excellent                0 Good        
##  7 Very_Good    Good       Good      Excellent                0 Good        
##  8 Very_Good    Good       Good      Excellent                0 Good        
##  9 Above_Avera… Typical    Good      Good                     0 Typical     
## 10 Above_Avera… Typical    Good      Good                     0 Typical     
## # … with 2,189 more rows, and 3 more variables: Fireplace_Qu <fct>,
## #   Garage_Qual <fct>, Pool_QC <fct>
```
…
* 3 main components to consider
   1. recipe: define your pre-processing blueprint
   2. prepare: estimate parameters based on training data
   3. .bold[bake: apply blueprint to new data]

]

.pull-right[

```r
baked_train <- bake(prepare, new_data = ames_train)
baked_test <- bake(prepare, new_data = ames_test)
baked_train
## # A tibble: 2,199 x 68
##    MS_SubClass MS_Zoning Lot_Frontage Lot_Area Lot_Shape Lot_Config Neighborhood
##    <fct>       <fct>            <dbl>    <dbl> <fct>     <fct>      <fct>       
##  1 One_Story_… Resident…        2.54    2.51   Slightly… Corner     North_Ames  
##  2 One_Story_… Resident…        0.678   0.165  Regular   Inside     North_Ames  
##  3 One_Story_… Resident…        0.709   0.472  Slightly… Corner     North_Ames  
##  4 Two_Story_… Resident…        0.495   0.421  Slightly… Inside     Gilbert     
##  5 Two_Story_… Resident…        0.617  -0.0267 Slightly… Inside     Gilbert     
##  6 One_Story_… Resident…       -0.510  -0.615  Regular   Inside     Stone_Brook 
##  7 One_Story_… Resident…       -0.449  -0.605  Slightly… Inside     Stone_Brook 
##  8 One_Story_… Resident…       -0.571  -0.560  Slightly… Inside     Stone_Brook 
##  9 Two_Story_… Resident…        0.526  -0.0241 Slightly… Corner     Gilbert     
## 10 Two_Story_… Resident…        0.160  -0.210  Slightly… Inside     Gilbert     
## # … with 2,189 more rows, and 61 more variables: Condition_1 <dbl>,
## #   Bldg_Type <fct>, House_Style <fct>, Overall_Qual <dbl>, Overall_Cond <dbl>,
## #   Year_Built <dbl>, Year_Remod_Add <dbl>, Roof_Style <fct>,
## #   Exterior_1st <fct>, Exterior_2nd <fct>, Mas_Vnr_Type <fct>,
## #   Mas_Vnr_Area <dbl>, Exter_Qual <dbl>, Exter_Cond <dbl>, Foundation <fct>,
## #   Bsmt_Qual <dbl>, Bsmt_Exposure <fct>, BsmtFin_Type_1 <fct>,
## #   BsmtFin_SF_1 <dbl>, BsmtFin_SF_2 <dbl>, Bsmt_Unf_SF <dbl>,
## #   Total_Bsmt_SF <dbl>, Heating_QC <dbl>, Central_Air <fct>, Electrical <fct>,
## #   First_Flr_SF <dbl>, Second_Flr_SF <dbl>, Low_Qual_Fin_SF <dbl>,
…
